…
<img src="index.markdown_strict_files/figure-markdown_strict/plot-w-cities-1.png" width="768" />

## Combine the map with other data

Let's take it a step further and now look at how we can combine our map with data that didn't come directly from the FHI. Instead I downloaded some data from the Norwegian Statistics Bureau ([Statistisk sentralbyrå, SSB](https://www.ssb.no)) on land use in the kommuner ([link](https://www.ssb.no/en/natur-og-miljo/areal/statistikk/arealbruk-og-arealressurser)). This came in the form of a semi-colon separated .csv file.

``` r
area_use <- read_delim("areal.csv", delim = ";", skip = 2) |> 
  janitor::clean_names()

print(area_use)
```

    # A tibble: 356 × 20
       region           area_2021_residential_areas area_2021_recreational_facilities area_2021_built_up_areas_for_agriculture_and_fishing area_2021_industrial_commercial_and_service_areas area_2021_education_and_day_care_facilities area_2021_health_and_social_welfare_institutions area_2021_cultural_and_religious_activities area_2021_transport_telecommunications_and_technical_infrastructure area_2021_emergency_and_defence_services area_2021_green_areas_and_sports_facilities area_2021_unclassified_built_up_areas_and_related_land area_2021_agricultural_land area_2021_forest area_2021_open_firm_ground area_2021_wetland area_2021_bare_rock_gravel_and_blockfields area_2021_permanent_snow_and_glaciers area_2021_inland_waters area_2021_unclassified_undeveloped_areas
       <chr>                                  <dbl>                             <dbl>                                                <dbl>                                             <dbl>                                       <dbl>                                            <dbl>                                       <dbl>                                                               <dbl>                                    <dbl>                                       <dbl>                                                  <dbl>                       <dbl>            <dbl>                      <dbl>             <dbl>                                      <dbl>                                 <dbl>                   <dbl>                                    <dbl>
     1 3001 Halden                             9.61                              1.85                                                 2.51                                              2.89                                        0.29                                             0.21                                        0.22                                                               11.4                                      0.03                                        0.84                                                   1.51                       61.6             480.                        2.88             16.2                                        1.3                                      0                   48.7                                         0
     2 3002 Moss                              10.4                               1.86                                                 1.59                                              3.92                                        0.32                                             0.21                                        0.14                                                                7.7                                      0.26                                        1.57                                                   1.42                       33.6              60.0                       4.09              0.21                                       0.48                                     0                   10.1                                         0
     3 3003 Sarpsborg                         14.0                               2.95                                                 3.49                                              4.39                                        0.48                                             0.28                                        0.19                                                               12.2                                      0.01                                        1.87                                                   1.52                       78.1             241.                        8.22              1.7                                        1.55                                     0                   33.5                                         0
     4 3004 Fredrikstad                       19.9                               5.14                                                 3.05                                              6.24                                        0.62                                             0.36                                        0.26                                                               11.8                                      0.27                                        2.84                                                   2.49                       67.4             139.                        8.91              0.23                                      15.4                                      0                    8.59                                        0
     5 3005 Drammen                           18.4                               1.17                                                 1.26                                              4.59                                        0.63                                             0.35                                        0.23                                                               11.6                                      0.01                                        3.41                                                   2.54                       26.0             226.                        2.59              5                                          1.17                                     0                   13.2                                         0
     6 3006 Kongsberg                          7.68                              2.23                                                 2.38                                              2.23                                        0.36                                             0.11                                        0.15                                                               11.8                                      0.35                                        1.86                                                   1.4                        40.2             616.                       15.4              32.1                                       18.8                                      0                   39.6                                         0
     7 3007 Ringerike                         11                                 3.99                                                 4.18                                              5.19                                        0.37                                             0.29                                        0.11                                                               21.4                                      0.36                                        1.27                                                   2.12                       77.7            1191.                       47.9              50.8                                        3.21                                     0                  134.                                          0
     8 3011 Hvaler                             2.31                              5.79                                                 0.65                                              0.34                                        0.04                                             0.02                                        0.03                                                                1.96                                     0                                           0.29                                                   0.19                        4.76             34.0                       5.65              0.16                                      33.5                                      0                    0.21                                        0
     9 3012 Aremark                            0.64                              0.73                                                 0.8                                               0.31                                        0.02                                             0.01                                        0.03                                                                3.35                                     0                                           0.16                                                   0.14                       20.9             245.                        0.94              7.24                                       0.02                                     0                   38.6                                         0
    10 3013 Marker                             1.38                              0.58                                                 1.68                                              0.52                                        0.03                                             0.02                                        0.05                                                                5.38                                     0.01                                        0.14                                                   0.34                       40.0             305.                        1.71             10.5                                        0.04                                     0                   46.0                                         0
    # ℹ 346 more rows
…
