…
## Combine the map with other data

Let's take it a step further and now look at how we can combine our map with data that didn't come directly from the FHI. Instead I downloaded some data from the Norwegian Statistics Bureau ([Statistisk sentralbyrå, SSB](https://www.ssb.no)) on land use in the kommuner ([link](https://www.ssb.no/en/natur-og-miljo/areal/statistikk/arealbruk-og-arealressurser)). This came in the form of a semi-colon separated .csv file.

``` r
area_use <- read_delim("./data/areal.csv",
  delim = ";", skip = 2
) |>
  janitor::clean_names()

print(area_use)
```

    # A tibble: 356 × 20
       region   area_2021_residentia…¹ area_2021_recreation…² area_2021_built_up_a…³
       <chr>                     <dbl>                  <dbl>                  <dbl>
     1 3001 Ha…                   9.61                   1.85                   2.51
     2 3002 Mo…                  10.4                    1.86                   1.59
     3 3003 Sa…                  14.0                    2.95                   3.49
     4 3004 Fr…                  19.9                    5.14                   3.05
     5 3005 Dr…                  18.4                    1.17                   1.26
     6 3006 Ko…                   7.68                   2.23                   2.38
     7 3007 Ri…                  11                      3.99                   4.18
     8 3011 Hv…                   2.31                   5.79                   0.65
     9 3012 Ar…                   0.64                   0.73                   0.8 
    10 3013 Ma…                   1.38                   0.58                   1.68
    # ℹ 346 more rows
    # ℹ abbreviated names: ¹​area_2021_residential_areas,
    #   ²​area_2021_recreational_facilities,
    #   ³​area_2021_built_up_areas_for_agriculture_and_fishing
    # ℹ 16 more variables: area_2021_industrial_commercial_and_service_areas <dbl>,
    #   area_2021_education_and_day_care_facilities <dbl>,
    #   area_2021_health_and_social_welfare_institutions <dbl>, …
…
