The easier way to create a map of Norway using {fhimaps} - Daniel Roelfs
…
The {fhimaps} package is created by the Norwegian Institute for Public Health (Folkehelseinstuttet, FHI). It’s part of a series of packages (which FHI refer to as the “fhiverse”), which includes a package containing basic FHI data ({fhidata}), one with different disease spread models ({spread}) and a few more. Here I’ll dive into the {fhimaps} package with some help from the {fhidata} package. I’ll also use the {ggmap} package to help with some other data and plotting. It’s perhaps important to note that {ggmap} does contain a map of Norway as a whole, but not of the fylker and kommuner (municipalities), hence the usefulness of the {fhimaps} package, which contains both. I’ll also use {tidyverse} and {ggtext} as I always do. I won’t load {fhimaps} with the library() function, but will use the :: operator instead since it’ll make it easier to navigate the different datasets included.

library(tidyverse)
library(ggtext)
library(ggmap)

So let’s have a look at what’s included. You’ll see that nearly all maps come in either a data.table format or an sf format. Here I’ll use only the data frames, since they’re a lot easier to work with. The maps in sf format can be useful elsewhere, but I think for most purposes it’s easier and more intuitive to work with data frames.

data(package = "fhimaps") %>% 
  pluck("results") %>% 
  as_tibble() %>% 
  select(Item,Title) %>% 
  print(n = 18)

## # A tibble: 31 × 2
##    Item                                                Title                                                                                                    
##    <chr>                                               <chr>                                                                                                    
##  1 norway_lau2_map_b2019_default_dt                    Map of Norwegian municipalities (2019 borders)                                                           
##  2 norway_lau2_map_b2019_default_sf                    Map of Norwegian municipalities (2019 borders) in sf format                                              
##  3 norway_lau2_map_b2019_insert_oslo_dt                Maps of Norwegian counties and municipalities with inserts (2019 borders) in data.table format           
##  4 norway_lau2_map_b2020_default_dt                    Map of Norwegian municipalities (2020 borders) in data.table format                                      
##  5 norway_lau2_map_b2020_default_sf                    Maps of Norwegian municipalities (2020 borders) in sf format                                             
##  6 norway_lau2_map_b2020_insert_oslo_dt                Maps of Norwegian counties and municipalities with an insert for Oslo (2020 borders) in data.table format
##  7 norway_lau2_map_b2020_split_dt                      Split map of Norwegian municipalities (2020 borders) in data.table format                                
##  8 norway_lau2_position_geolabels_b2020_default_dt     Map of Norwegian municipalities (2020 borders) in data.table format                                      
##  9 norway_lau2_position_geolabels_b2020_insert_oslo_dt Maps of Norwegian counties and municipalities with an insert for Oslo (2020 borders) in data.table format
## 10 norway_nuts3_map_b2017_default_dt                   Map of Norwegian counties (2017 borders) in data.table format                                            
## 11 norway_nuts3_map_b2017_default_sf                   Map of Norwegian counties (2017 borders) in sf format                                                    
## 12 norway_nuts3_map_b2017_insert_oslo_dt               Map of Norwegian counties with inserts (2017 borders) in data.table format                               
## 13 norway_nuts3_map_b2019_default_dt                   Map of Norwegian counties (2019 borders)                                                                 
## 14 norway_nuts3_map_b2019_default_sf                   Map of Norwegian counties (2019 borders) in sf format                                                    
## 15 norway_nuts3_map_b2019_insert_oslo_dt               Maps of Norwegian counties and municipalities with inserts (2019 borders) in data.table format           
## 16 norway_nuts3_map_b2020_default_dt                   Map of Norwegian counties (2020 borders) in data.table format                                            
## 17 norway_nuts3_map_b2020_default_sf                   Map of Norwegian counties (2020 borders) in sf format                                                    
## 18 norway_nuts3_map_b2020_insert_oslo_dt               Maps of Norwegian counties and municipalities with an insert for Oslo (2020 borders) in data.table format
## # … with 13 more rows
…
Combine the map with other data

Let’s take it a step further and now look at how we can combine our map with data that didn’t come directly from the FHI. Instead I downloaded some data from the Norwegian Statistics Bureau (Statistisk sentralbyrå, SSB) on land use in the kommuner (link). This came in the form of a semi-colon separated .csv file.

area_use <- read_delim("Areal.csv", delim = ";", skip = 2) %>%
  janitor::clean_names()

print(area_use)

## # A tibble: 356 × 20
##    region           area_2021_residential_areas area_2021_recreational_facilities area_2021_built_up_areas_for_agriculture_and_fishing area_2021_industrial_commercial_and_service_areas area_2021_education_and_day_care_facilities area_2021_health_and_social_welfare_institutions area_2021_cultural_and_religious_activities area_2021_transport_telecommunications_and_technical_infrastructure area_2021_emergency_and_defence_services area_2021_green_areas_and_sports_facilities area_2021_unclassified_built_up_areas_and_related_land area_2021_agricultural_land area_2021_forest area_2021_open_firm_ground area_2021_wetland area_2021_bare_rock_gravel_and_blockfields area_2021_permanent_snow_and_glaciers area_2021_inland_waters area_2021_unclassified_undeveloped_areas
##    <chr>                                  <dbl>                             <dbl>                                                <dbl>                                             <dbl>                                       <dbl>                                            <dbl>                                       <dbl>                                                               <dbl>                                    <dbl>                                       <dbl>                                                  <dbl>                       <dbl>            <dbl>                      <dbl>             <dbl>                                      <dbl>                                 <dbl>                   <dbl>                                    <dbl>
##  1 3001 Halden                             9.61                              1.85                                                 2.51                                              2.89                                        0.29                                             0.21                                        0.22                                                               11.4                                      0.03                                        0.84                                                   1.51                       61.6             480.                        2.88             16.2                                        1.3                                      0                   48.7                                         0
##  2 3002 Moss                              10.4                               1.86                                                 1.59                                              3.92                                        0.32                                             0.21                                        0.14                                                                7.7                                      0.26                                        1.57                                                   1.42                       33.6              60.0                       4.09              0.21                                       0.48                                     0                   10.1                                         0
##  3 3003 Sarpsborg                         14.0                               2.95                                                 3.49                                              4.39                                        0.48                                             0.28                                        0.19                                                               12.2                                      0.01                                        1.87                                                   1.52                       78.1             241.                        8.22              1.7                                        1.55                                     0                   33.5                                         0
##  4 3004 Fredrikstad                       19.9                               5.14                                                 3.05                                              6.24                                        0.62                                             0.36                                        0.26                                                               11.8                                      0.27                                        2.84                                                   2.49                       67.4             139.                        8.91              0.23                                      15.4                                      0                    8.59                                        0
##  5 3005 Drammen                           18.4                               1.17                                                 1.26                                              4.59                                        0.63                                             0.35                                        0.23                                                               11.6                                      0.01                                        3.41                                                   2.54                       26.0             226.                        2.59              5                                          1.17                                     0                   13.2                                         0
##  6 3006 Kongsberg                          7.68                              2.23                                                 2.38                                              2.23                                        0.36                                             0.11                                        0.15                                                               11.8                                      0.35                                        1.86                                                   1.4                        40.2             616.                       15.4              32.1                                       18.8                                      0                   39.6                                         0
##  7 3007 Ringerike                         11                                 3.99                                                 4.18                                              5.19                                        0.37                                             0.29                                        0.11                                                               21.4                                      0.36                                        1.27                                                   2.12                       77.7            1191.                       47.9              50.8                                        3.21                                     0                  134.                                          0
##  8 3011 Hvaler                             2.31                              5.79                                                 0.65                                              0.34                                        0.04                                             0.02                                        0.03                                                                1.96                                     0                                           0.29                                                   0.19                        4.76             34.0                       5.65              0.16                                      33.5                                      0                    0.21                                        0
##  9 3012 Aremark                            0.64                              0.73                                                 0.8                                               0.31                                        0.02                                             0.01                                        0.03                                                                3.35                                     0                                           0.16                                                   0.14                       20.9             245.                        0.94              7.24                                       0.02                                     0                   38.6                                         0
## 10 3013 Marker                             1.38                              0.58                                                 1.68                                              0.52                                        0.03                                             0.02                                        0.05                                                                5.38                                     0.01                                        0.14                                                   0.34                       40.0             305.                        1.71             10.5                                        0.04                                     0                   46.0                                         0
## # … with 346 more rows
…
